---
title: "data_visualization_park"
output: html_document
---
##臺北房市交易房屋之車位價格與面積 
#### 資料park
```{r}
library(readxl)
dataset <- read_excel("park.xlsx")
data.frame("park")
```

```{}
# A tibble: 68 x 4
   number              type       price  area
   <chr>               <chr>      <dbl> <dbl>
 1 RPUNMLPLNHNFFAA18CA 坡道平面       0 NA   
 2 RPPOMLNLNHNFFAA57CA 坡道平面       0 36.7 
 3 RPUNMLQLNHNFFAA28CA 坡道平面       0 NA   
 4 RPTOMLMKOHNFFAA87CA 升降機械       0 19.9 
 5 RPQOMLLLNHNFFAA47CA 升降機械 1400000 27.9 
 6 RPTNMLLMNHNFFAA77CA 坡道平面       0 38.6 
 7 RPUNMLTKOHNFFAA58CA 坡道平面       0 41.6 
 8 RPTNMLPLNHNFFBA18CA 塔式車位       0  1.47
 9 RPPNMLNKOHNFFBA57CA 坡道平面 4000000 61.0 
10 RPPNMLNKOHNFFBA57CA 其他     2000000 30.2 
# ... with 58 more rows
```
…
